[
  {
    "objectCode":"STORE_MANAGER",
    "title":"Crazy Bee Guy",
    "level": 2,
    "npCharacterRequestCodes":["GREETING"],
    "scenarioCodes":["CHECKOUT_LANE"]

  },
  {
    "objectCode":"SECURITY_GUARD",
    "title":"Officer",
    "level": 7,
    "npCharacterRequestCodes":["FOUND_EVERYTHING_QUESTION"],
    "scenarioCodes":["PRODUCE_SECTION"]

  },
  {
    "objectCode":"STORE_JANITOR",
    "title":"Dr Cow",
    "level": 4,
    "npCharacterRequestCodes":["PRODUCE_SPECIAL"],
    "scenarioCodes":["DEATH_DOME"]


  },
  {
    "objectCode":"PRODUCE_CLERK",
    "title":"A man who smells",
    "level": 1,
    "npCharacterRequestCodes":["MEAT_SPECIAL"],
    "scenarioCodes":["TREE_OF_K"]


  },
  {
    "objectCode":"BUTCHER",
    "title":"The Jackal",
    "level": 12,
    "npCharacterRequestCodes":["CASH_CREDIT"],
    "scenarioCodes":["THE_HIVE"]


  },
  {
    "objectCode":"CASHIER",
    "title":"The Creeper",
    "level": 6,
    "npCharacterRequestCodes":["ACCUSATION"],
    "scenarioCodes":["GOOP"]

  }
]